Week 5 Data Session
…
# Get regression table (from moderndive package)
get_regression_table(reg1)

# A tibble: 2 × 7
  term            estimate std_error statistic p_value lower_ci upper_ci
  <chr>              <dbl>     <dbl>     <dbl>   <dbl>    <dbl>    <dbl>
1 intercept         41.0       4.61       8.91       0   31.8     50.3  
2 ba_or_more_2015    0.691     0.152      4.54       0    0.385    0.998

# Generate predicted/fitted values (y-hat) and residuals, or errors
regression_points <- get_regression_points(reg1)
regression_points

# A tibble: 50 × 5
      ID vep16_turnout ba_or_more_2015 vep16_turnout_hat residual
   <int>         <dbl>           <dbl>             <dbl>    <dbl>
 1     1          59.3            24.2              57.8    1.52 
 2     2          61.8            29.7              61.6    0.217
 3     3          56.2            27.7              60.2   -4    
 4     4          53.1            21.8              56.1   -3.02 
 5     5          58.4            32.3              63.4   -4.98 
 6     6          72.1            39.2              68.2    3.95 
 7     7          65.4            38.3              67.5   -2.13 
 8     8          64.6            30.9              62.4    2.19 
 9     9          65.7            28.4              60.7    5.02 
10    10          59.9            29.9              61.7   -1.82 
# … with 40 more rows
